{
    "meals": [
        {
            "uuid": "a74cd191-c80f-43d7-a085-d38b0cf665f0",
            "title": "Taco Stew",
            "style": "Mexican",
            "ratings": [
                {
                    "source": "Chris",
                    "value": 5
                },
                {
                    "source": "Amanda",
                    "value": 5
                }
            ],
            "ingredients": [
                {
                    "title": "Ground Beef",
                    "type": "Meat",
                    "count": 1.5,
                    "source": "Ground Beef"
                },
                {
                    "title": "Onion",
                    "type": "Produce",
                    "count": 1,
                    "source": "Onion"
                },
                {
                    "title": "Taco Seasoning",
                    "type": "Spice",
                    "count": 1,
                    "source": "Taco Seasoning"
                },
                {
                    "title": "28 Ounce Meatless Spaghetti Sauce",
                    "type": "Jared",
                    "count": 1,
                    "source": "Meatless Spaghetti Sauce"
                },
                {
                    "title": "15 Ounce Can Red Kidney Beans",
                    "type": "Canned",
                    "count": 1,
                    "source": "Can Red Kidney Beans"
                },
                {
                    "title": "4 Ounce Can Diced Green Chile Pepers",
                    "type": "Canned",
                    "count": 1,
                    "source": "Can Diced Green Chile Pepers"
                },
                {
                    "title": "Shredded Cheese",
                    "type": "Dairy",
                    "count": 1,
                    "source": "Shredded Cheese"
                },
                {
                    "title": "Corn Chips",
                    "type": "Snacks",
                    "count": 1,
                    "source": "Corn Chips"
                },
                {
                    "title": "Shredded Lettuce",
                    "type": "Produce",
                    "count": 1,
                    "source": "Shredded Lettuce"
                },
                {
                    "title": "Sour Cream",
                    "type": "Dairy",
                    "count": 1,
                    "source": "Sour Cream"
                },
                {
                    "title": "Taco Sauce (medium spice)",
                    "type": "Spice",
                    "count": "1",
                    "source": "Taco Sauce (medium spice)"
                },
                {
                    "title": "1 Cup Salsa (medium)",
                    "type": "Spice",
                    "count": "1",
                    "source": "Salsa (medium)"
                }
            ],
            "recipe": "* Preptime: 25 minutes\n* Slow Cook: 4 to 5 hours (low) 2 to 2 1/2 hours (high)\n* Number of Servings: 8"
        },
        {
            "uuid": "a21d5dd0-4ad8-4644-b9b0-248304cab3d5",
            "title": "Chris' Tacos",
            "style": "Mexican",
            "ratings": [
                {
                    "source": "Chris",
                    "value": 5
                },
                {
                    "source": "Amanda",
                    "value": 4
                }
            ],
            "ingredients": [
                {
                    "title": "Tomato",
                    "type": "Vegetable",
                    "count": 2,
                    "source": "Tomato"
                },
                {
                    "title": "Ground Beef Package",
                    "type": "Meat",
                    "count": 1,
                    "source": "Ground Beef"
                },
                {
                    "title": "Taco Seasoning",
                    "type": "Spice",
                    "count": 1,
                    "source": "Taco Seasoning"
                }
            ],
            "recipe": "this\nis a test.\n\n* with a\n* markdown list."
        },
        {
            "uuid": "df471f36-4c4c-4b70-a7cb-513079e3fe45",
            "title": "Tuna Caserole",
            "style": "Casserole",
            "ratings": [
                {
                    "source": "Chris",
                    "value": 3
                },
                {
                    "source": "Amanda",
                    "value": 3
                }
            ],
            "ingredients": [
                {
                    "title": "White Flaked Tuna Can",
                    "type": "Fish",
                    "count": 3,
                    "source": "White Flaked Tuna Can"
                }
            ],
            "recipe": "* testing123"
        },
        {
            "uuid": "c78bfc25-62f0-4b8e-b76c-0b129876e5e1",
            "title": "Butter Chicken",
            "style": "Indian",
            "ratings": [
                {
                    "source": "Chris",
                    "value": 5
                },
                {
                    "source": "Amanda",
                    "value": 5
                }
            ],
            "ingredients": [
                {
                    "title": "Chicken Breast",
                    "type": "Meat",
                    "count": 4,
                    "source": "Chicken Breast"
                },
                {
                    "title": "Butter Chicken Sauce",
                    "type": "Sauce",
                    "count": 2,
                    "source": "Butter Chicken Sauce"
                }
            ],
            "recipe": ""
        },
        {
            "uuid": "5147ad69-54cc-463a-93fc-434462f9314e",
            "title": "Homemade Pizza",
            "style": "Italian",
            "ratings": [
                {
                    "source": "Chris",
                    "value": 5
                },
                {
                    "source": "Amanda",
                    "value": 0
                }
            ],
            "ingredients": [
                {
                    "title": "Tomato Sauce",
                    "type": "Canned",
                    "count": 1,
                    "source": "Tomato Sauce"
                },
                {
                    "title": "Tomato Paste",
                    "type": "Canned",
                    "count": 1,
                    "source": "Tomato Paste"
                },
                {
                    "title": "Pizza Crust",
                    "type": "Baked",
                    "count": 1,
                    "source": "Pizza Crust"
                },
                {
                    "title": "Pinapple Chunks",
                    "type": "Canned",
                    "count": 1,
                    "source": "Pinapple Chunks"
                },
                {
                    "title": "Sliced Ham",
                    "type": "Meat",
                    "count": 1,
                    "source": "Sliced Ham"
                },
                {
                    "title": "Shredded Cheese",
                    "type": "Dairy",
                    "count": 1,
                    "source": "Shredded Cheese"
                }
            ],
            "recipe": ""
        },
        {
            "uuid": "2ab3c3ad-b7e1-4bb4-b08e-7f727bddfe66",
            "ingredients": [
                {
                    "title": "Medium russet potatos",
                    "type": "Vegetable",
                    "count": "3",
                    "unit": "thing",
                    "source": "Potatos"
                },
                {
                    "title": "Butter",
                    "type": "Dairy",
                    "count": "5",
                    "unit": "tablespoon",
                    "source": "Butter"
                },
                {
                    "title": "Milk",
                    "type": "Dairy",
                    "count": "0.5",
                    "unit": "cup",
                    "source": "Milk"
                },
                {
                    "title": "Salt",
                    "type": "Spice",
                    "count": "1",
                    "unit": "teaspoon",
                    "source": "Salt"
                },
                {
                    "title": "Black Pepper",
                    "type": "Spice",
                    "count": "0.5",
                    "unit": "teaspoon",
                    "source": "Black Pepper"
                },
                {
                    "title": "Onion",
                    "type": "Produce",
                    "count": "2",
                    "unit": "thing",
                    "source": "Onion"
                },
                {
                    "title": "Carrots",
                    "type": "Vegetable",
                    "count": "2",
                    "unit": "thing",
                    "source": "Carrots"
                },
                {
                    "title": "Dried thyme",
                    "type": "Spice",
                    "count": "0.5",
                    "unit": "teaspoon",
                    "source": "Dried Thyme"
                },
                {
                    "title": "Ground Lamb",
                    "type": "Meat",
                    "count": "1.5",
                    "unit": "thing",
                    "source": "Ground Lamb"
                },
                {
                    "title": "Tomato paste",
                    "unit": "tablespoon",
                    "count": "3",
                    "type": "Canned",
                    "source": "Tomato Paste"
                },
                {
                    "title": "Worcestershire sauce",
                    "type": "Spice",
                    "count": "1",
                    "unit": "tablespoon",
                    "source": "Worcestershire sauce"
                },
                {
                    "title": "Reduced sodium beef broth",
                    "type": "Canned",
                    "count": "1.5",
                    "unit": "cup",
                    "source": "Beef Broth"
                },
                {
                    "title": "Frozen peas",
                    "type": "Frozen",
                    "count": "0.5",
                    "unit": "cup",
                    "source": "Frozen Peas"
                }
            ],
            "title": "Shepherd's Pie",
            "style": "Casserole",
            "recipe": ""
        },
        {
            "uuid": "b379b1a2-cb21-4f58-b3d0-e3b892d3b3dd",
            "ingredients": [
                {
                    "title": "Ground beef",
                    "type": "Meat",
                    "count": "1",
                    "unit": "lbs",
                    "source": "Ground Beef"
                },
                {
                    "title": "Onion",
                    "type": "Produce",
                    "count": "0.5",
                    "unit": "cup",
                    "source": "Onion"
                },
                {
                    "title": "cloves garlic, minced",
                    "type": "Spice",
                    "count": "2",
                    "unit": "thing",
                    "source": "Garlic"
                },
                {
                    "title": "Potatoes",
                    "type": "Produce",
                    "count": "2",
                    "unit": "cup",
                    "source": "Potatoes"
                },
                {
                    "title": "Sliced Carrot",
                    "type": "Vegetable",
                    "count": "0.5",
                    "unit": "cup",
                    "source": "Carrots"
                },
                {
                    "title": "Ketchup",
                    "type": "Condiment",
                    "count": "0.5",
                    "unit": "cup",
                    "source": "Ketchup"
                },
                {
                    "title": "Yellow Mustard",
                    "type": "Condiment",
                    "count": "2",
                    "unit": "tablespoon",
                    "source": "Yellow Mustard"
                },
                {
                    "title": "Chopped serrano chillie peppers",
                    "type": "Spice",
                    "count": "1",
                    "unit": "tablespoon",
                    "source": "Chopped Serrano Chillie Peppers"
                },
                {
                    "title": "Salt",
                    "type": "Spice",
                    "count": "0.25",
                    "unit": "teaspoon",
                    "source": "Salt"
                },
                {
                    "title": "Ground black pepper",
                    "type": "Spice",
                    "count": "0.25",
                    "unit": "teaspoon",
                    "source": "Plack Pepper"
                },
                {
                    "title": "14.5 ounce can beef broth",
                    "type": "Canned",
                    "count": "1",
                    "unit": "can",
                    "source": "Beef Broth"
                },
                {
                    "title": "10.75 ounce can condenced cheddar cheese soup",
                    "type": "Canned",
                    "count": "1",
                    "unit": "can",
                    "source": "Condenced Cheddar Cheese Soup"
                },
                {
                    "title": "Shredded cheddar cheese",
                    "type": "Dairy",
                    "count": "0.5",
                    "unit": "cup",
                    "source": "Shredded Cheese"
                }
            ],
            "title": "Cheeseburger soup",
            "style": "North American"
        },
        {
            "uuid": "c869f675-602e-4bbf-847b-11c886eaffcd",
            "ingredients": [
                {
                    "title": "Beef flank steak",
                    "type": "Meat",
                    "count": "1.5",
                    "unit": "lbs",
                    "source": "Beef Flank Steak"
                },
                {
                    "title": "large green sweet pepper",
                    "type": "Vegetable",
                    "count": "1",
                    "unit": "thing",
                    "source": "Green Sweet Pepper"
                },
                {
                    "title": "large red sweet pepper",
                    "type": "Vegetable",
                    "count": "1",
                    "unit": "thing",
                    "source": "Red Sweet Pepper"
                },
                {
                    "title": "Large yellow sweet pepper",
                    "type": "Vegetable",
                    "count": "1",
                    "unit": "thing",
                    "source": "Yellow Sweet Pepper"
                },
                {
                    "title": "Onion",
                    "type": "Produce",
                    "count": "1",
                    "unit": "thing",
                    "source": "Onion"
                },
                {
                    "title": "16 ounce jar green salsa",
                    "type": "Canned",
                    "count": "1",
                    "unit": "can",
                    "source": "Green Salsa"
                },
                {
                    "title": "8 inch whole wheat flour tortillas",
                    "type": "Baked",
                    "count": "8",
                    "unit": "thing",
                    "source": "Whole Wheat Flour Tortillas"
                }
            ],
            "title": "Slow-Cooked beef fajitas",
            "style": "Mexican"
        },
        {
            "uuid": "edfde6d5-75a6-4e5a-8d7a-4cf27e14dbed",
            "ingredients": [
                {
                    "title": "Boneless Beef Chuck Pot Roast",
                    "type": "Meat",
                    "count": "3",
                    "unit": "lbs",
                    "source": "Boneless Beef Chuck Pot Roast"
                },
                {
                    "title": "Chopped celery",
                    "type": "Vegetable",
                    "count": "1.5",
                    "unit": "cup",
                    "source": "Celery"
                },
                {
                    "title": "Chopped green onion",
                    "type": "Vegetable",
                    "count": "0.5",
                    "unit": "cup",
                    "source": "Green Onion"
                },
                {
                    "title": "Rice vinigar",
                    "type": "Condiment",
                    "count": "0.25",
                    "unit": "cup",
                    "source": "Rice Vinigar"
                },
                {
                    "title": "Reduced-sodium soy sauce",
                    "type": "Condiment",
                    "count": "0.25",
                    "unit": "cup",
                    "source": "Soy Sauce"
                },
                {
                    "title": "Hoisin sauce",
                    "type": "Condiment",
                    "count": "2",
                    "unit": "tablespoon",
                    "source": "Hoisin Sauce"
                },
                {
                    "title": "Minced fresh ginger",
                    "type": "Vegetable",
                    "count": "1",
                    "unit": "tablespoon",
                    "source": "Minced Ginger"
                },
                {
                    "title": "Salt",
                    "type": "Spice",
                    "count": "0.5",
                    "unit": "teaspoon",
                    "source": "Salt"
                },
                {
                    "title": "Chili oil",
                    "type": "Condiment",
                    "count": "0.5",
                    "unit": "teaspoon",
                    "source": "Chili Oil"
                },
                {
                    "title": "Black pepper",
                    "type": "Spice",
                    "count": "0.25",
                    "unit": "teaspoon",
                    "source": "Black Pepper"
                },
                {
                    "title": "Cornstarch",
                    "type": "Baked",
                    "count": "2",
                    "unit": "tablespoon",
                    "source": "Cornstarch"
                },
                {
                    "title": "Lettuce leaves (large)",
                    "type": "Vegetable",
                    "count": "1",
                    "unit": "package",
                    "source": "Lettuce Leaves"
                },
                {
                    "title": "Coarsely chopped cashews (optional)",
                    "type": "Produce",
                    "count": "0.5",
                    "unit": "cup",
                    "source": "Chopped Cashews"
                }
            ],
            "title": "Asian Lettuce Wraps",
            "style": "Asian"
        },
        {
            "uuid": "1c96fd27-7275-4567-a14a-2fae73de9a3a",
            "ingredients": [
                {
                    "title": "Sweet potatoes",
                    "type": "Vegetable",
                    "count": "4",
                    "unit": "lbs",
                    "source": "Sweet Potatoes"
                },
                {
                    "title": "Frozen Orange Juice Concentrate",
                    "type": "Frozen",
                    "unit": "can",
                    "count": "0.5",
                    "source": "Frozen Orange Juice Concentrate"
                },
                {
                    "title": "Brown sugar",
                    "type": "Baked",
                    "count": "3",
                    "unit": "tablespoon",
                    "source": "Brown Sugar"
                },
                {
                    "title": "Salt",
                    "type": "Spice",
                    "count": "1.5",
                    "unit": "teaspoon",
                    "source": "Salt"
                },
                {
                    "title": "Dried sage - crushed",
                    "type": "Spice",
                    "count": "0.5",
                    "unit": "teaspoon",
                    "source": "Dried Sage"
                },
                {
                    "title": "Dried thyme, crushed",
                    "type": "Spice",
                    "count": "0.5",
                    "unit": "teaspoon",
                    "source": "Dried Thyme"
                },
                {
                    "title": "Butter",
                    "type": "Dairy",
                    "count": "2",
                    "unit": "tablespoon",
                    "source": "Butter"
                },
                {
                    "title": "Bacon slices (crisp-cooked, drained and crumbled)",
                    "type": "Meat",
                    "count": "4",
                    "unit": "slice",
                    "source": "Bacon"
                }
            ],
            "title": "Orange-sage sweet potatoes with bacon",
            "style": "North American"
        },
        {
            "uuid": "93e0cce8-1536-4500-afc9-1a87769b0587",
            "ingredients": [
                {
                    "title": "Broccoli florets (fresh or frozen)",
                    "type": "Vegetable",
                    "count": "4",
                    "unit": "cup",
                    "source": "Broccoli Florets"
                },
                {
                    "title": "Cauliflower florets (fresh or frozen)",
                    "type": "Vegetable",
                    "count": "4",
                    "unit": "cup",
                    "source": "Cauliflower Florets"
                },
                {
                    "title": "Alfredo sauce (16 oz jar)",
                    "type": "Jared",
                    "count": "1",
                    "source": "Alfredo sauce"
                },
                {
                    "title": "Swiss Cheese (shredded)",
                    "type": "Dairy",
                    "count": "1.5",
                    "unit": "cup",
                    "source": "Swiss Cheese"
                },
                {
                    "title": "Onion (chopped)",
                    "type": "Vegetable",
                    "count": "1",
                    "unit": "cup",
                    "source": "Onion"
                },
                {
                    "title": "Dried Thyme or Oregano or Basil - Crushed",
                    "type": "Spice",
                    "count": "1",
                    "unit": "teaspoon",
                    "source": "Dried Thyme"
                },
                {
                    "title": "Black pepper",
                    "type": "Spice",
                    "count": "0.25",
                    "unit": "teaspoon",
                    "source": "Black Pepper"
                },
                {
                    "title": "Sliced Almonds",
                    "type": "Produce",
                    "count": "0.5",
                    "unit": "cup",
                    "source": "Sliced Almonds"
                }
            ],
            "title": "Cauliflower and broccoli in swiss cheese sauce",
            "style": "Casserole",
            "recipe": "- In a 3.5 or 4 quart slow cooker combine broccoli, cauliflower, Alfredo sauce, cheese, onion, thyme and pepper.\n- Cover and cook on low-heat setting for 6 to 7 hours or on high-heat setting for 3 to 3.5 hours.\n- Stir gently before serving. If desired sprinkle with almonds."
        },
        {
            "uuid": "0366ca87-8ca2-4a14-93c0-34374920cb1d",
            "ingredients": [
                {
                    "title": "Dried elbow macaroni",
                    "count": "2.5",
                    "unit": "cup",
                    "source": "Elbow Macaroni"
                },
                {
                    "title": "Nonstick cooking spray",
                    "source": "Cooking Spray"
                },
                {
                    "title": "Evaporated milk (12oz can)",
                    "type": "Canned",
                    "count": "1",
                    "source": "Evaporated Milk"
                },
                {
                    "title": "Milk",
                    "type": "Dairy",
                    "count": "1.5",
                    "unit": "cup",
                    "source": "Milk"
                },
                {
                    "title": "American cheese slices",
                    "type": "Dairy",
                    "count": "6",
                    "source": "American Cheese Slices"
                },
                {
                    "title": "Chopped celery",
                    "type": "Vegetable",
                    "count": "0.5",
                    "unit": "cup",
                    "source": "Celery"
                },
                {
                    "title": "Chopped red onion",
                    "type": "Vegetable",
                    "unit": "cup",
                    "source": "Red Onion"
                },
                {
                    "title": "Salt",
                    "type": "Spice",
                    "count": "0.5",
                    "unit": "teaspoon",
                    "source": "Salt"
                },
                {
                    "title": "White pepper",
                    "type": "Spice",
                    "count": "0.5",
                    "unit": "teaspoon",
                    "source": "White Pepper"
                },
                {
                    "title": "Milk",
                    "type": "Dairy",
                    "count": "0.5",
                    "unit": "cup",
                    "source": "Milk"
                },
                {
                    "title": "Shredded cheddar cheese",
                    "type": "Dairy",
                    "count": "0.5",
                    "unit": "cup",
                    "source": "Shredded Cheese"
                }
            ],
            "title": "Double-cheese macaroni and cheese",
            "style": "North American",
            "recipe": "1. In a large saucepan cook pasta in a large amount of boiling water for 2 minutes. Drain.\n2. Coat the inside of a 3.5 or 5 quart slow cooker with cooking spray. Add the cooked pasta, evaporated milk, the 1.5cups milk, the American cheese, celery, onion, salt and pepper. Stir well to combine.\n3. Cover and cook on low-heat setting for 3 hours giving the crockery insert a half turn after 1.5 hours of cooking, if possible. Add the 0.5 cup of milk and the cheddar cheese; stir until cheese is melted and mixture is creamy."
        }
    ]
}